{"count":158,"next":"http://showroom.eis24.me/api/v4/test/areas/?limit=100&offset=100","previous":null,"results":[{"id":"526237d1e0e34c524382c074","number":1,"str_number":"1","str_number_full":"кв. 1","house":{"address":"г Санкт-Петербург, ул Чудес, д 256","id":"526237d1e0e34c524382c073","fias_addrobjs":["c2deb16a-0330-4f05-821f-1d09c93331e6","92d0675e-d7ba-41f1-a602-101ec538d42e"]}},{"id":"526237d1e0e34c524382c076","number":2,"str_number":"2","str_number_full":"кв. 2","house":{"address":"г Санкт-Петербург, ул Чудес, д 256","id":"526237d1e0e34c524382c073","fias_addrobjs":["c2deb16a-0330-4f05-821f-1d09c93331e6","92d0675e-d7ba-41f1-a602-101ec538d42e"]}},{"id":"526237d1e0e34c524382c078","number":3,"str_number":"3","str_number_full":"кв. 3","house":{"address":"г Санкт-Петербург, ул Чудес, д 256","id":"526237d1e0e34c524382c073","fias_addrobjs":["c2deb16a-0330-4f05-821f-1d09c93331e6","92d0675e-d7ba-41f1-a602-101ec538d42e"]}},{"id":"526237d1e0e34c524382c07a","number":4,"str_number":"4","str_number_full":"кв. 4","house":{"address":"г Санкт-Петербург, ул Чудес, д 256","id":"526237d1e0e34c524382c073","fias_addrobjs":["c2deb16a-0330-4f05-821f-1d09c93331e6","92d0675e-d7ba-41f1-a602-101ec538d42e"]}},{"id":"526237d1e0e34c524382c07c","number":5,"str_number":"5","str_number_full":"кв. 5","house":{"address":"г Санкт-Петербург, ул Чудес, д 256","id":"526237d1e0e34c524382c073","fias_addrobjs":["c2deb16a-0330-4f05-821f-1d09c93331e6","92d0675e-d7ba-41f1-a602-101ec538d42e"]}},{"id":"526237d1e0e34c524382c07e","number":6,"str_number":"6","str_number_full":"кв. 6","house":{"address":"г Санкт-Петербург, ул Чудес, д 256","id":"526237d1e0e34c524382c073","fias_addrobjs":["c2deb16a-0330-4f05-821f-1d09c93331e6","92d0675e-d7ba-41f1-a602-101ec538d42e"]}},{"id":"526237d1e0e34c524382c080","number":7,"str_number":"7","str_number_full":"кв. 7","house":{"address":"г Санкт-Петербург, ул Чудес, д 256","id":"526237d1e0e34c524382c073","fias_addrobjs":["c2deb16a-0330-4f05-821f-1d09c93331e6","92d0675e-d7ba-41f1-a602-101ec538d42e"]}},{"id":"526237d1e0e34c524382c082","number":8,"str_number":"8","str_number_full":"кв. 8","house":{"address":"г Санкт-Петербург, ул Чудес, д 256","id":"526237d1e0e34c524382c073","fias_addrobjs":["c2deb16a-0330-4f05-821f-1d09c93331e6","92d0675e-d7ba-41f1-a602-101ec538d42e"]}},{"id":"526237d1e0e34c524382c084","number":9,"str_number":"9","str_number_full":"кв. 9","house":{"address":"г Санкт-Петербург, ул Чудес, д 256","id":"526237d1e0e34c524382c073","fias_addrobjs":["c2deb16a-0330-4f05-821f-1d09c93331e6","92d0675e-d7ba-41f1-a602-101ec538d42e"]}},{"id":"526237d1e0e34c524382c086","number":10,"str_number":"10","str_number_full":"кв. 10","house":{"address":"г Санкт-Петербург, ул Чудес, д 256","id":"526237d1e0e34c524382c073","fias_addrobjs":["c2deb16a-0330-4f05-821f-1d09c93331e6","92d0675e-d7ba-41f1-a602-101ec538d42e"]}},{"id":"526237d1e0e34c524382c088","number":11,"str_number":"11","str_number_full":"кв. 11","house":{"address":"г Санкт-Петербург, ул Чудес, д 256","id":"526237d1e0e34c524382c073","fias_addrobjs":["c2deb16a-0330-4f05-821f-1d09c93331e6","92d0675e-d7ba-41f1-a602-101ec538d42e"]}},{"id":"526237d1e0e34c524382c08a","number":12,"str_number":"12","str_number_full":"кв. 12","house":{"address":"г Санкт-Петербург, ул Чудес, д 256","id":"526237d1e0e34c524382c073","fias_addrobjs":["c2deb16a-0330-4f05-821f-1d09c93331e6","92d0675e-d7ba-41f1-a602-101ec538d42e"]}},{"id":"526237d1e0e34c524382c08c","number":13,"str_number":"13","str_number_full":"кв. 13","house":{"address":"г Санкт-Петербург, ул Чудес, д 256","id":"526237d1e0e34c524382c073","fias_addrobjs":["c2deb16a-0330-4f05-821f-1d09c93331e6","92d0675e-d7ba-41f1-a602-101ec538d42e"]}},{"id":"526237d1e0e34c524382c08e","number":14,"str_number":"14","str_number_full":"кв. 14","house":{"address":"г Санкт-Петербург, ул Чудес, д 256","id":"526237d1e0e34c524382c073","fias_addrobjs":["c2deb16a-0330-4f05-821f-1d09c93331e6","92d0675e-d7ba-41f1-a602-101ec538d42e"]}},{"id":"526237d1e0e34c524382c090","number":15,"str_number":"15","str_number_full":"кв. 15","house":{"address":"г Санкт-Петербург, ул Чудес, д 256","id":"526237d1e0e34c524382c073","fias_addrobjs":["c2deb16a-0330-4f05-821f-1d09c93331e6","92d0675e-d7ba-41f1-a602-101ec538d42e"]}},{"id":"526237d1e0e34c524382c092","number":16,"str_number":"16","str_number_full":"кв. 16","house":{"address":"г Санкт-Петербург, ул Чудес, д 256","id":"526237d1e0e34c524382c073","fias_addrobjs":["c2deb16a-0330-4f05-821f-1d09c93331e6","92d0675e-d7ba-41f1-a602-101ec538d42e"]}},{"id":"526237d1e0e34c524382c094","number":17,"str_number":"17","str_number_full":"кв. 17","house":{"address":"г Санкт-Петербург, ул Чудес, д 256","id":"526237d1e0e34c524382c073","fias_addrobjs":["c2deb16a-0330-4f05-821f-1d09c93331e6","92d0675e-d7ba-41f1-a602-101ec538d42e"]}},{"id":"526237d1e0e34c524382c096","number":18,"str_number":"18","str_number_full":"кв. 18","house":{"address":"г Санкт-Петербург, ул Чудес, д 256","id":"526237d1e0e34c524382c073","fias_addrobjs":["c2deb16a-0330-4f05-821f-1d09c93331e6","92d0675e-d7ba-41f1-a602-101ec538d42e"]}},{"id":"526237d1e0e34c524382c098","number":19,"str_number":"19","str_number_full":"кв. 19","house":{"address":"г Санкт-Петербург, ул Чудес, д 256","id":"526237d1e0e34c524382c073","fias_addrobjs":["c2deb16a-0330-4f05-821f-1d09c93331e6","92d0675e-d7ba-41f1-a602-101ec538d42e"]}},{"id":"526237d1e0e34c524382c09a","number":20,"str_number":"20","str_number_full":"кв. 20","house":{"address":"г Санкт-Петербург, ул Чудес, д 256","id":"526237d1e0e34c524382c073","fias_addrobjs":["c2deb16a-0330-4f05-821f-1d09c93331e6","92d0675e-d7ba-41f1-a602-101ec538d42e"]}},{"id":"526237d1e0e34c524382c09c","number":21,"str_number":"21","str_number_full":"кв. 21","house":{"address":"г Санкт-Петербург, ул Чудес, д 256","id":"526237d1e0e34c524382c073","fias_addrobjs":["c2deb16a-0330-4f05-821f-1d09c93331e6","92d0675e-d7ba-41f1-a602-101ec538d42e"]}},{"id":"526237d1e0e34c524382c09e","number":22,"str_number":"22","str_number_full":"кв. 22","house":{"address":"г Санкт-Петербург, ул Чудес, д 256","id":"526237d1e0e34c524382c073","fias_addrobjs":["c2deb16a-0330-4f05-821f-1d09c93331e6","92d0675e-d7ba-41f1-a602-101ec538d42e"]}},{"id":"526237d1e0e34c524382c0a0","number":23,"str_number":"23","str_number_full":"кв. 23","house":{"address":"г Санкт-Петербург, ул Чудес, д 256","id":"526237d1e0e34c524382c073","fias_addrobjs":["c2deb16a-0330-4f05-821f-1d09c93331e6","92d0675e-d7ba-41f1-a602-101ec538d42e"]}},{"id":"526237d1e0e34c524382c0a2","number":24,"str_number":"24","str_number_full":"кв. 24","house":{"address":"г Санкт-Петербург, ул Чудес, д 256","id":"526237d1e0e34c524382c073","fias_addrobjs":["c2deb16a-0330-4f05-821f-1d09c93331e6","92d0675e-d7ba-41f1-a602-101ec538d42e"]}},{"id":"526237d1e0e34c524382c0a4","number":25,"str_number":"25","str_number_full":"кв. 25","house":{"address":"г Санкт-Петербург, ул Чудес, д 256","id":"526237d1e0e34c524382c073","fias_addrobjs":["c2deb16a-0330-4f05-821f-1d09c93331e6","92d0675e-d7ba-41f1-a602-101ec538d42e"]}},{"id":"526237d1e0e34c524382c0a6","number":26,"str_number":"26","str_number_full":"кв. 26","house":{"address":"г Санкт-Петербург, ул Чудес, д 256","id":"526237d1e0e34c524382c073","fias_addrobjs":["c2deb16a-0330-4f05-821f-1d09c93331e6","92d0675e-d7ba-41f1-a602-101ec538d42e"]}},{"id":"526237d1e0e34c524382c0a8","number":27,"str_number":"27","str_number_full":"кв. 27","house":{"address":"г Санкт-Петербург, ул Чудес, д 256","id":"526237d1e0e34c524382c073","fias_addrobjs":["c2deb16a-0330-4f05-821f-1d09c93331e6","92d0675e-d7ba-41f1-a602-101ec538d42e"]}},{"id":"526237d1e0e34c524382c0aa","number":28,"str_number":"28","str_number_full":"кв. 28","house":{"address":"г Санкт-Петербург, ул Чудес, д 256","id":"526237d1e0e34c524382c073","fias_addrobjs":["c2deb16a-0330-4f05-821f-1d09c93331e6","92d0675e-d7ba-41f1-a602-101ec538d42e"]}},{"id":"526237d1e0e34c524382c0ac","number":29,"str_number":"29","str_number_full":"кв. 29","house":{"address":"г Санкт-Петербург, ул Чудес, д 256","id":"526237d1e0e34c524382c073","fias_addrobjs":["c2deb16a-0330-4f05-821f-1d09c93331e6","92d0675e-d7ba-41f1-a602-101ec538d42e"]}},{"id":"526237d1e0e34c524382c0ae","number":30,"str_number":"30","str_number_full":"кв. 30","house":{"address":"г Санкт-Петербург, ул Чудес, д 256","id":"526237d1e0e34c524382c073","fias_addrobjs":["c2deb16a-0330-4f05-821f-1d09c93331e6","92d0675e-d7ba-41f1-a602-101ec538d42e"]}},{"id":"526237d1e0e34c524382c0b0","number":31,"str_number":"31","str_number_full":"кв. 31","house":{"address":"г Санкт-Петербург, ул Чудес, д 256","id":"526237d1e0e34c524382c073","fias_addrobjs":["c2deb16a-0330-4f05-821f-1d09c93331e6","92d0675e-d7ba-41f1-a602-101ec538d42e"]}},{"id":"526237d1e0e34c524382c0b2","number":32,"str_number":"32","str_number_full":"кв. 32","house":{"address":"г Санкт-Петербург, ул Чудес, д 256","id":"526237d1e0e34c524382c073","fias_addrobjs":["c2deb16a-0330-4f05-821f-1d09c93331e6","92d0675e-d7ba-41f1-a602-101ec538d42e"]}},{"id":"526237d2e0e34c524382c0b4","number":33,"str_number":"33","str_number_full":"кв. 33","house":{"address":"г Санкт-Петербург, ул Чудес, д 256","id":"526237d1e0e34c524382c073","fias_addrobjs":["c2deb16a-0330-4f05-821f-1d09c93331e6","92d0675e-d7ba-41f1-a602-101ec538d42e"]}},{"id":"526237d2e0e34c524382c0b6","number":34,"str_number":"34","str_number_full":"кв. 34","house":{"address":"г Санкт-Петербург, ул Чудес, д 256","id":"526237d1e0e34c524382c073","fias_addrobjs":["c2deb16a-0330-4f05-821f-1d09c93331e6","92d0675e-d7ba-41f1-a602-101ec538d42e"]}},{"id":"526237d2e0e34c524382c0b8","number":35,"str_number":"35","str_number_full":"кв. 35","house":{"address":"г Санкт-Петербург, ул Чудес, д 256","id":"526237d1e0e34c524382c073","fias_addrobjs":["c2deb16a-0330-4f05-821f-1d09c93331e6","92d0675e-d7ba-41f1-a602-101ec538d42e"]}},{"id":"526237d2e0e34c524382c0ba","number":36,"str_number":"36","str_number_full":"кв. 36","house":{"address":"г Санкт-Петербург, ул Чудес, д 256","id":"526237d1e0e34c524382c073","fias_addrobjs":["c2deb16a-0330-4f05-821f-1d09c93331e6","92d0675e-d7ba-41f1-a602-101ec538d42e"]}},{"id":"526237d2e0e34c524382c0bc","number":37,"str_number":"37","str_number_full":"кв. 37","house":{"address":"г Санкт-Петербург, ул Чудес, д 256","id":"526237d1e0e34c524382c073","fias_addrobjs":["c2deb16a-0330-4f05-821f-1d09c93331e6","92d0675e-d7ba-41f1-a602-101ec538d42e"]}},{"id":"526237d2e0e34c524382c0be","number":38,"str_number":"38","str_number_full":"кв. 38","house":{"address":"г Санкт-Петербург, ул Чудес, д 256","id":"526237d1e0e34c524382c073","fias_addrobjs":["c2deb16a-0330-4f05-821f-1d09c93331e6","92d0675e-d7ba-41f1-a602-101ec538d42e"]}},{"id":"526237d2e0e34c524382c0c0","number":39,"str_number":"39","str_number_full":"кв. 39","house":{"address":"г Санкт-Петербург, ул Чудес, д 256","id":"526237d1e0e34c524382c073","fias_addrobjs":["c2deb16a-0330-4f05-821f-1d09c93331e6","92d0675e-d7ba-41f1-a602-101ec538d42e"]}},{"id":"526237d2e0e34c524382c0c2","number":40,"str_number":"40","str_number_full":"кв. 40","house":{"address":"г Санкт-Петербург, ул Чудес, д 256","id":"526237d1e0e34c524382c073","fias_addrobjs":["c2deb16a-0330-4f05-821f-1d09c93331e6","92d0675e-d7ba-41f1-a602-101ec538d42e"]}},{"id":"526237d2e0e34c524382c0c4","number":41,"str_number":"41","str_number_full":"кв. 41","house":{"address":"г Санкт-Петербург, ул Чудес, д 256","id":"526237d1e0e34c524382c073","fias_addrobjs":["c2deb16a-0330-4f05-821f-1d09c93331e6","92d0675e-d7ba-41f1-a602-101ec538d42e"]}},{"id":"526237d2e0e34c524382c0c6","number":42,"str_number":"42","str_number_full":"кв. 42","house":{"address":"г Санкт-Петербург, ул Чудес, д 256","id":"526237d1e0e34c524382c073","fias_addrobjs":["c2deb16a-0330-4f05-821f-1d09c93331e6","92d0675e-d7ba-41f1-a602-101ec538d42e"]}},{"id":"526237d2e0e34c524382c0c8","number":43,"str_number":"43","str_number_full":"кв. 43","house":{"address":"г Санкт-Петербург, ул Чудес, д 256","id":"526237d1e0e34c524382c073","fias_addrobjs":["c2deb16a-0330-4f05-821f-1d09c93331e6","92d0675e-d7ba-41f1-a602-101ec538d42e"]}},{"id":"526237d2e0e34c524382c0ca","number":44,"str_number":"44","str_number_full":"кв. 44","house":{"address":"г Санкт-Петербург, ул Чудес, д 256","id":"526237d1e0e34c524382c073","fias_addrobjs":["c2deb16a-0330-4f05-821f-1d09c93331e6","92d0675e-d7ba-41f1-a602-101ec538d42e"]}},{"id":"526237d2e0e34c524382c0cc","number":45,"str_number":"45","str_number_full":"кв. 45","house":{"address":"г Санкт-Петербург, ул Чудес, д 256","id":"526237d1e0e34c524382c073","fias_addrobjs":["c2deb16a-0330-4f05-821f-1d09c93331e6","92d0675e-d7ba-41f1-a602-101ec538d42e"]}},{"id":"526237d2e0e34c524382c0ce","number":46,"str_number":"46","str_number_full":"кв. 46","house":{"address":"г Санкт-Петербург, ул Чудес, д 256","id":"526237d1e0e34c524382c073","fias_addrobjs":["c2deb16a-0330-4f05-821f-1d09c93331e6","92d0675e-d7ba-41f1-a602-101ec538d42e"]}},{"id":"526237d2e0e34c524382c0d0","number":47,"str_number":"47","str_number_full":"кв. 47","house":{"address":"г Санкт-Петербург, ул Чудес, д 256","id":"526237d1e0e34c524382c073","fias_addrobjs":["c2deb16a-0330-4f05-821f-1d09c93331e6","92d0675e-d7ba-41f1-a602-101ec538d42e"]}},{"id":"526237d2e0e34c524382c0d2","number":48,"str_number":"48","str_number_full":"кв. 48","house":{"address":"г Санкт-Петербург, ул Чудес, д 256","id":"526237d1e0e34c524382c073","fias_addrobjs":["c2deb16a-0330-4f05-821f-1d09c93331e6","92d0675e-d7ba-41f1-a602-101ec538d42e"]}},{"id":"526237d2e0e34c524382c0d4","number":49,"str_number":"49","str_number_full":"кв. 49","house":{"address":"г Санкт-Петербург, ул Чудес, д 256","id":"526237d1e0e34c524382c073","fias_addrobjs":["c2deb16a-0330-4f05-821f-1d09c93331e6","92d0675e-d7ba-41f1-a602-101ec538d42e"]}},{"id":"526237d2e0e34c524382c0d6","number":50,"str_number":"50","str_number_full":"кв. 50","house":{"address":"г Санкт-Петербург, ул Чудес, д 256","id":"526237d1e0e34c524382c073","fias_addrobjs":["c2deb16a-0330-4f05-821f-1d09c93331e6","92d0675e-d7ba-41f1-a602-101ec538d42e"]}},{"id":"526237d2e0e34c524382c0d8","number":51,"str_number":"51","str_number_full":"кв. 51","house":{"address":"г Санкт-Петербург, ул Чудес, д 256","id":"526237d1e0e34c524382c073","fias_addrobjs":["c2deb16a-0330-4f05-821f-1d09c93331e6","92d0675e-d7ba-41f1-a602-101ec538d42e"]}},{"id":"526237d2e0e34c524382c0da","number":52,"str_number":"52","str_number_full":"кв. 52","house":{"address":"г Санкт-Петербург, ул Чудес, д 256","id":"526237d1e0e34c524382c073","fias_addrobjs":["c2deb16a-0330-4f05-821f-1d09c93331e6","92d0675e-d7ba-41f1-a602-101ec538d42e"]}},{"id":"526237d2e0e34c524382c0dc","number":53,"str_number":"53","str_number_full":"кв. 53","house":{"address":"г Санкт-Петербург, ул Чудес, д 256","id":"526237d1e0e34c524382c073","fias_addrobjs":["c2deb16a-0330-4f05-821f-1d09c93331e6","92d0675e-d7ba-41f1-a602-101ec538d42e"]}},{"id":"526237d2e0e34c524382c0de","number":54,"str_number":"54","str_number_full":"кв. 54","house":{"address":"г Санкт-Петербург, ул Чудес, д 256","id":"526237d1e0e34c524382c073","fias_addrobjs":["c2deb16a-0330-4f05-821f-1d09c93331e6","92d0675e-d7ba-41f1-a602-101ec538d42e"]}},{"id":"526237d2e0e34c524382c0e0","number":55,"str_number":"55","str_number_full":"кв. 55","house":{"address":"г Санкт-Петербург, ул Чудес, д 256","id":"526237d1e0e34c524382c073","fias_addrobjs":["c2deb16a-0330-4f05-821f-1d09c93331e6","92d0675e-d7ba-41f1-a602-101ec538d42e"]}},{"id":"526237d2e0e34c524382c0e2","number":56,"str_number":"56","str_number_full":"кв. 56","house":{"address":"г Санкт-Петербург, ул Чудес, д 256","id":"526237d1e0e34c524382c073","fias_addrobjs":["c2deb16a-0330-4f05-821f-1d09c93331e6","92d0675e-d7ba-41f1-a602-101ec538d42e"]}},{"id":"526237d2e0e34c524382c0e4","number":57,"str_number":"57","str_number_full":"кв. 57","house":{"address":"г Санкт-Петербург, ул Чудес, д 256","id":"526237d1e0e34c524382c073","fias_addrobjs":["c2deb16a-0330-4f05-821f-1d09c93331e6","92d0675e-d7ba-41f1-a602-101ec538d42e"]}},{"id":"526237d2e0e34c524382c0e6","number":58,"str_number":"58","str_number_full":"кв. 58","house":{"address":"г Санкт-Петербург, ул Чудес, д 256","id":"526237d1e0e34c524382c073","fias_addrobjs":["c2deb16a-0330-4f05-821f-1d09c93331e6","92d0675e-d7ba-41f1-a602-101ec538d42e"]}},{"id":"526237d2e0e34c524382c0e8","number":59,"str_number":"59","str_number_full":"кв. 59","house":{"address":"г Санкт-Петербург, ул Чудес, д 256","id":"526237d1e0e34c524382c073","fias_addrobjs":["c2deb16a-0330-4f05-821f-1d09c93331e6","92d0675e-d7ba-41f1-a602-101ec538d42e"]}},{"id":"526237d2e0e34c524382c0ea","number":60,"str_number":"60","str_number_full":"кв. 60","house":{"address":"г Санкт-Петербург, ул Чудес, д 256","id":"526237d1e0e34c524382c073","fias_addrobjs":["c2deb16a-0330-4f05-821f-1d09c93331e6","92d0675e-d7ba-41f1-a602-101ec538d42e"]}},{"id":"526237d2e0e34c524382c0ec","number":61,"str_number":"61","str_number_full":"кв. 61","house":{"address":"г Санкт-Петербург, ул Чудес, д 256","id":"526237d1e0e34c524382c073","fias_addrobjs":["c2deb16a-0330-4f05-821f-1d09c93331e6","92d0675e-d7ba-41f1-a602-101ec538d42e"]}},{"id":"526237d2e0e34c524382c0ee","number":62,"str_number":"62","str_number_full":"кв. 62","house":{"address":"г Санкт-Петербург, ул Чудес, д 256","id":"526237d1e0e34c524382c073","fias_addrobjs":["c2deb16a-0330-4f05-821f-1d09c93331e6","92d0675e-d7ba-41f1-a602-101ec538d42e"]}},{"id":"526237d2e0e34c524382c0f0","number":63,"str_number":"63","str_number_full":"кв. 63","house":{"address":"г Санкт-Петербург, ул Чудес, д 256","id":"526237d1e0e34c524382c073","fias_addrobjs":["c2deb16a-0330-4f05-821f-1d09c93331e6","92d0675e-d7ba-41f1-a602-101ec538d42e"]}},{"id":"526237d2e0e34c524382c0f2","number":64,"str_number":"64","str_number_full":"кв. 64","house":{"address":"г Санкт-Петербург, ул Чудес, д 256","id":"526237d1e0e34c524382c073","fias_addrobjs":["c2deb16a-0330-4f05-821f-1d09c93331e6","92d0675e-d7ba-41f1-a602-101ec538d42e"]}},{"id":"526237d2e0e34c524382c0f4","number":65,"str_number":"65","str_number_full":"кв. 65","house":{"address":"г Санкт-Петербург, ул Чудес, д 256","id":"526237d1e0e34c524382c073","fias_addrobjs":["c2deb16a-0330-4f05-821f-1d09c93331e6","92d0675e-d7ba-41f1-a602-101ec538d42e"]}},{"id":"526237d2e0e34c524382c0f6","number":66,"str_number":"66","str_number_full":"кв. 66","house":{"address":"г Санкт-Петербург, ул Чудес, д 256","id":"526237d1e0e34c524382c073","fias_addrobjs":["c2deb16a-0330-4f05-821f-1d09c93331e6","92d0675e-d7ba-41f1-a602-101ec538d42e"]}},{"id":"526237d2e0e34c524382c0f8","number":67,"str_number":"67","str_number_full":"кв. 67","house":{"address":"г Санкт-Петербург, ул Чудес, д 256","id":"526237d1e0e34c524382c073","fias_addrobjs":["c2deb16a-0330-4f05-821f-1d09c93331e6","92d0675e-d7ba-41f1-a602-101ec538d42e"]}},{"id":"526237d2e0e34c524382c0fa","number":68,"str_number":"68","str_number_full":"кв. 68","house":{"address":"г Санкт-Петербург, ул Чудес, д 256","id":"526237d1e0e34c524382c073","fias_addrobjs":["c2deb16a-0330-4f05-821f-1d09c93331e6","92d0675e-d7ba-41f1-a602-101ec538d42e"]}},{"id":"526237d2e0e34c524382c0fc","number":69,"str_number":"69","str_number_full":"кв. 69","house":{"address":"г Санкт-Петербург, ул Чудес, д 256","id":"526237d1e0e34c524382c073","fias_addrobjs":["c2deb16a-0330-4f05-821f-1d09c93331e6","92d0675e-d7ba-41f1-a602-101ec538d42e"]}},{"id":"526237d2e0e34c524382c0fe","number":70,"str_number":"70","str_number_full":"кв. 70","house":{"address":"г Санкт-Петербург, ул Чудес, д 256","id":"526237d1e0e34c524382c073","fias_addrobjs":["c2deb16a-0330-4f05-821f-1d09c93331e6","92d0675e-d7ba-41f1-a602-101ec538d42e"]}},{"id":"526237d2e0e34c524382c100","number":71,"str_number":"71","str_number_full":"кв. 71","house":{"address":"г Санкт-Петербург, ул Чудес, д 256","id":"526237d1e0e34c524382c073","fias_addrobjs":["c2deb16a-0330-4f05-821f-1d09c93331e6","92d0675e-d7ba-41f1-a602-101ec538d42e"]}},{"id":"526237d2e0e34c524382c102","number":72,"str_number":"72","str_number_full":"кв. 72","house":{"address":"г Санкт-Петербург, ул Чудес, д 256","id":"526237d1e0e34c524382c073","fias_addrobjs":["c2deb16a-0330-4f05-821f-1d09c93331e6","92d0675e-d7ba-41f1-a602-101ec538d42e"]}},{"id":"526237d2e0e34c524382c104","number":73,"str_number":"73","str_number_full":"кв. 73","house":{"address":"г Санкт-Петербург, ул Чудес, д 256","id":"526237d1e0e34c524382c073","fias_addrobjs":["c2deb16a-0330-4f05-821f-1d09c93331e6","92d0675e-d7ba-41f1-a602-101ec538d42e"]}},{"id":"526237d2e0e34c524382c106","number":74,"str_number":"74","str_number_full":"кв. 74","house":{"address":"г Санкт-Петербург, ул Чудес, д 256","id":"526237d1e0e34c524382c073","fias_addrobjs":["c2deb16a-0330-4f05-821f-1d09c93331e6","92d0675e-d7ba-41f1-a602-101ec538d42e"]}},{"id":"526237d2e0e34c524382c108","number":75,"str_number":"75","str_number_full":"кв. 75","house":{"address":"г Санкт-Петербург, ул Чудес, д 256","id":"526237d1e0e34c524382c073","fias_addrobjs":["c2deb16a-0330-4f05-821f-1d09c93331e6","92d0675e-d7ba-41f1-a602-101ec538d42e"]}},{"id":"526237d2e0e34c524382c10a","number":76,"str_number":"76","str_number_full":"кв. 76","house":{"address":"г Санкт-Петербург, ул Чудес, д 256","id":"526237d1e0e34c524382c073","fias_addrobjs":["c2deb16a-0330-4f05-821f-1d09c93331e6","92d0675e-d7ba-41f1-a602-101ec538d42e"]}},{"id":"526237d2e0e34c524382c10c","number":77,"str_number":"77","str_number_full":"кв. 77","house":{"address":"г Санкт-Петербург, ул Чудес, д 256","id":"526237d1e0e34c524382c073","fias_addrobjs":["c2deb16a-0330-4f05-821f-1d09c93331e6","92d0675e-d7ba-41f1-a602-101ec538d42e"]}},{"id":"526237d2e0e34c524382c10e","number":78,"str_number":"78","str_number_full":"кв. 78","house":{"address":"г Санкт-Петербург, ул Чудес, д 256","id":"526237d1e0e34c524382c073","fias_addrobjs":["c2deb16a-0330-4f05-821f-1d09c93331e6","92d0675e-d7ba-41f1-a602-101ec538d42e"]}},{"id":"526237d2e0e34c524382c110","number":79,"str_number":"79","str_number_full":"кв. 79","house":{"address":"г Санкт-Петербург, ул Чудес, д 256","id":"526237d1e0e34c524382c073","fias_addrobjs":["c2deb16a-0330-4f05-821f-1d09c93331e6","92d0675e-d7ba-41f1-a602-101ec538d42e"]}},{"id":"526237d2e0e34c524382c112","number":80,"str_number":"80","str_number_full":"кв. 80","house":{"address":"г Санкт-Петербург, ул Чудес, д 256","id":"526237d1e0e34c524382c073","fias_addrobjs":["c2deb16a-0330-4f05-821f-1d09c93331e6","92d0675e-d7ba-41f1-a602-101ec538d42e"]}},{"id":"526237d2e0e34c524382c114","number":81,"str_number":"81","str_number_full":"кв. 81","house":{"address":"г Санкт-Петербург, ул Чудес, д 256","id":"526237d1e0e34c524382c073","fias_addrobjs":["c2deb16a-0330-4f05-821f-1d09c93331e6","92d0675e-d7ba-41f1-a602-101ec538d42e"]}},{"id":"526237d2e0e34c524382c116","number":82,"str_number":"82","str_number_full":"кв. 82","house":{"address":"г Санкт-Петербург, ул Чудес, д 256","id":"526237d1e0e34c524382c073","fias_addrobjs":["c2deb16a-0330-4f05-821f-1d09c93331e6","92d0675e-d7ba-41f1-a602-101ec538d42e"]}},{"id":"526237d2e0e34c524382c118","number":83,"str_number":"83","str_number_full":"кв. 83","house":{"address":"г Санкт-Петербург, ул Чудес, д 256","id":"526237d1e0e34c524382c073","fias_addrobjs":["c2deb16a-0330-4f05-821f-1d09c93331e6","92d0675e-d7ba-41f1-a602-101ec538d42e"]}},{"id":"526237d2e0e34c524382c11a","number":84,"str_number":"84","str_number_full":"кв. 84","house":{"address":"г Санкт-Петербург, ул Чудес, д 256","id":"526237d1e0e34c524382c073","fias_addrobjs":["c2deb16a-0330-4f05-821f-1d09c93331e6","92d0675e-d7ba-41f1-a602-101ec538d42e"]}},{"id":"526237d2e0e34c524382c11c","number":85,"str_number":"85","str_number_full":"кв. 85","house":{"address":"г Санкт-Петербург, ул Чудес, д 256","id":"526237d1e0e34c524382c073","fias_addrobjs":["c2deb16a-0330-4f05-821f-1d09c93331e6","92d0675e-d7ba-41f1-a602-101ec538d42e"]}},{"id":"526237d2e0e34c524382c11e","number":86,"str_number":"86","str_number_full":"кв. 86","house":{"address":"г Санкт-Петербург, ул Чудес, д 256","id":"526237d1e0e34c524382c073","fias_addrobjs":["c2deb16a-0330-4f05-821f-1d09c93331e6","92d0675e-d7ba-41f1-a602-101ec538d42e"]}},{"id":"526237d2e0e34c524382c120","number":87,"str_number":"87","str_number_full":"кв. 87","house":{"address":"г Санкт-Петербург, ул Чудес, д 256","id":"526237d1e0e34c524382c073","fias_addrobjs":["c2deb16a-0330-4f05-821f-1d09c93331e6","92d0675e-d7ba-41f1-a602-101ec538d42e"]}},{"id":"526237d3e0e34c524382c122","number":88,"str_number":"88","str_number_full":"кв. 88","house":{"address":"г Санкт-Петербург, ул Чудес, д 256","id":"526237d1e0e34c524382c073","fias_addrobjs":["c2deb16a-0330-4f05-821f-1d09c93331e6","92d0675e-d7ba-41f1-a602-101ec538d42e"]}},{"id":"526237d3e0e34c524382c124","number":89,"str_number":"89","str_number_full":"кв. 89","house":{"address":"г Санкт-Петербург, ул Чудес, д 256","id":"526237d1e0e34c524382c073","fias_addrobjs":["c2deb16a-0330-4f05-821f-1d09c93331e6","92d0675e-d7ba-41f1-a602-101ec538d42e"]}},{"id":"526237d3e0e34c524382c126","number":90,"str_number":"90","str_number_full":"кв. 90","house":{"address":"г Санкт-Петербург, ул Чудес, д 256","id":"526237d1e0e34c524382c073","fias_addrobjs":["c2deb16a-0330-4f05-821f-1d09c93331e6","92d0675e-d7ba-41f1-a602-101ec538d42e"]}},{"id":"526237d3e0e34c524382c128","number":91,"str_number":"91","str_number_full":"кв. 91","house":{"address":"г Санкт-Петербург, ул Чудес, д 256","id":"526237d1e0e34c524382c073","fias_addrobjs":["c2deb16a-0330-4f05-821f-1d09c93331e6","92d0675e-d7ba-41f1-a602-101ec538d42e"]}},{"id":"526237d3e0e34c524382c12a","number":92,"str_number":"92","str_number_full":"кв. 92","house":{"address":"г Санкт-Петербург, ул Чудес, д 256","id":"526237d1e0e34c524382c073","fias_addrobjs":["c2deb16a-0330-4f05-821f-1d09c93331e6","92d0675e-d7ba-41f1-a602-101ec538d42e"]}},{"id":"526237d3e0e34c524382c12c","number":93,"str_number":"93","str_number_full":"кв. 93","house":{"address":"г Санкт-Петербург, ул Чудес, д 256","id":"526237d1e0e34c524382c073","fias_addrobjs":["c2deb16a-0330-4f05-821f-1d09c93331e6","92d0675e-d7ba-41f1-a602-101ec538d42e"]}},{"id":"526237d3e0e34c524382c12e","number":94,"str_number":"94","str_number_full":"кв. 94","house":{"address":"г Санкт-Петербург, ул Чудес, д 256","id":"526237d1e0e34c524382c073","fias_addrobjs":["c2deb16a-0330-4f05-821f-1d09c93331e6","92d0675e-d7ba-41f1-a602-101ec538d42e"]}},{"id":"526237d3e0e34c524382c130","number":95,"str_number":"95","str_number_full":"кв. 95","house":{"address":"г Санкт-Петербург, ул Чудес, д 256","id":"526237d1e0e34c524382c073","fias_addrobjs":["c2deb16a-0330-4f05-821f-1d09c93331e6","92d0675e-d7ba-41f1-a602-101ec538d42e"]}},{"id":"526237d3e0e34c524382c132","number":96,"str_number":"96","str_number_full":"кв. 96","house":{"address":"г Санкт-Петербург, ул Чудес, д 256","id":"526237d1e0e34c524382c073","fias_addrobjs":["c2deb16a-0330-4f05-821f-1d09c93331e6","92d0675e-d7ba-41f1-a602-101ec538d42e"]}},{"id":"526237d3e0e34c524382c134","number":97,"str_number":"97","str_number_full":"кв. 97","house":{"address":"г Санкт-Петербург, ул Чудес, д 256","id":"526237d1e0e34c524382c073","fias_addrobjs":["c2deb16a-0330-4f05-821f-1d09c93331e6","92d0675e-d7ba-41f1-a602-101ec538d42e"]}},{"id":"526237d3e0e34c524382c136","number":98,"str_number":"98","str_number_full":"кв. 98","house":{"address":"г Санкт-Петербург, ул Чудес, д 256","id":"526237d1e0e34c524382c073","fias_addrobjs":["c2deb16a-0330-4f05-821f-1d09c93331e6","92d0675e-d7ba-41f1-a602-101ec538d42e"]}},{"id":"526237d3e0e34c524382c138","number":99,"str_number":"99","str_number_full":"кв. 99","house":{"address":"г Санкт-Петербург, ул Чудес, д 256","id":"526237d1e0e34c524382c073","fias_addrobjs":["c2deb16a-0330-4f05-821f-1d09c93331e6","92d0675e-d7ba-41f1-a602-101ec538d42e"]}},{"id":"526237d3e0e34c524382c13a","number":100,"str_number":"100","str_number_full":"кв. 100","house":{"address":"г Санкт-Петербург, ул Чудес, д 256","id":"526237d1e0e34c524382c073","fias_addrobjs":["c2deb16a-0330-4f05-821f-1d09c93331e6","92d0675e-d7ba-41f1-a602-101ec538d42e"]}}]}